<?xml version="1.0" encoding="UTF-8" standalone="no"?>
<!-- Created with Inkscape (http://www.inkscape.org/) -->

<svg
   width="27.769344mm"
   height="27.769344mm"
   viewBox="0 0 27.769345 27.769344"
   version="1.1"
   id="svg8"
   inkscape:version="1.3 (0e150ed, 2023-07-21)"
   sodipodi:docname="CoupeCircuit.svg"
   xmlns:inkscape="http://www.inkscape.org/namespaces/inkscape"
   xmlns:sodipodi="http://sodipodi.sourceforge.net/DTD/sodipodi-0.dtd"
   xmlns="http://www.w3.org/2000/svg"
   xmlns:svg="http://www.w3.org/2000/svg"
   xmlns:rdf="http://www.w3.org/1999/02/22-rdf-syntax-ns#"
   xmlns:cc="http://creativecommons.org/ns#"
   xmlns:dc="http://purl.org/dc/elements/1.1/">
  <defs
     id="defs2" />
  <sodipodi:namedview
     id="base"
     pagecolor="#ffffff"
     bordercolor="#666666"
     borderopacity="1.0"
     inkscape:pageopacity="0.0"
     inkscape:pageshadow="2"
     inkscape:zoom="6.2430191"
     inkscape:cx="52.538683"
     inkscape:cy="52.538683"
     inkscape:document-units="mm"
     inkscape:current-layer="layer1"
     showgrid="false"
     inkscape:window-width="1920"
     inkscape:window-height="1027"
     inkscape:window-x="0"
     inkscape:window-y="25"
     inkscape:window-maximized="1"
     inkscape:showpageshadow="0"
     inkscape:pagecheckerboard="0"
     inkscape:deskcolor="#d1d1d1" />
  <metadata
     id="metadata5">
    <rdf:RDF>
      <cc:Work
         rdf:about="">
        <dc:format>image/svg+xml</dc:format>
        <dc:type
           rdf:resource="http://purl.org/dc/dcmitype/StillImage" />
      </cc:Work>
    </rdf:RDF>
  </metadata>
  <g
     inkscape:label="Calque 1"
     inkscape:groupmode="layer"
     id="layer1"
     transform="translate(-166.98482,-164.58988)">
    <circle
       r="13.134672"
       cy="178.47455"
       cx="180.86949"
       id="path826"
       style="fill:#ffffff;fill-opacity:1;stroke:#1200ff;stroke-width:1.5;stroke-miterlimit:4;stroke-dasharray:none;stroke-dashoffset:0;stroke-opacity:1"
       inkscape:label="path826" />
    <path
       style="fill:#1200ff;fill-opacity:1;stroke-width:0.218902"
       d="m 173.09682,180.0346 v -1.06968 h -1.97829 -2.0002 v -0.36772 -0.36774 h 1.98925 1.98924 v -1.12955 -1.26344 h 7.77262 7.65078 v 1.1923 1.20069 h 2.05021 2.05022 v 0.36772 0.36774 h -2.05022 -2.05021 v 1.07805 1.06967 h -7.70078 -7.72262 z m 14.723,-0.35934 v -0.71034 h -7.0003 -7.0257 v 0.71034 0.7187 h 7.0257 7.0003 z m 0,-2.27896 v -0.84154 h -6.9503 -7.0757 v 0.90444 0.77026 h 7.013 7.01299 z"
       id="path1"
       sodipodi:nodetypes="ccccccccccccccccccccccccccccccccccccccccccc" />
  </g>
</svg>
